<svg xmlns="http://www.w3.org/2000/svg" width="20" height="20">
    <g data-name="check on">
        <g data-name="타원 271" style="fill:#fff;stroke:#d4d4d4;stroke-width:2px">
            <circle cx="10" cy="10" r="10" style="stroke:none"/>
            <circle cx="10" cy="10" r="9" style="fill:none"/>
        </g>
    </g>
</svg>
