<svg xmlns="http://www.w3.org/2000/svg" width="86" height="86">
    <defs>
        <style>
            .cls-2{stroke:#d8e1e8;stroke-linecap:round;stroke-linejoin:round;stroke-width:2px}
        </style>
    </defs>
    <g id="그룹_5446" data-name="그룹 5446" transform="translate(-145 -314)">
        <path id="사각형_4576" data-name="사각형 4576" transform="translate(145 314)" style="fill:none" d="M0 0h86v86H0z"/>
        <g id="그룹_5444" data-name="그룹 5444" transform="translate(-577.043 -410.809)">
            <path id="선_168" data-name="선 168" class="cls-2" transform="translate(765.122 770.271)" d="M0 0v31.538"/>
            <path id="선_169" data-name="선 169" class="cls-2" transform="translate(792.406 767.309)" d="M0 0v19.112"/>
            <path id="선_170" data-name="선 170" class="cls-2" transform="translate(737.679 767.284)" d="M0 0v18.884"/>
            <path id="선_171" data-name="선 171" class="cls-2" transform="translate(737.839 786.04)" d="M27.313 15.769 0 0"/>
            <path id="선_172" data-name="선 172" class="cls-2" transform="translate(765.094 786.04)" d="M27.313 0 0 15.769"/>
            <path id="선_173" data-name="선 173" class="cls-2" transform="translate(727.043 746.518)" d="M25.21 0 0 14.555"/>
            <path id="선_174" data-name="선 174" class="cls-2" transform="translate(754.536 754.991)" d="M37.871 0 0 21.865"/>
            <path id="선_175" data-name="선 175" class="cls-2" transform="translate(727.262 761.096)" d="M26.877 15.518 0 0"/>
            <path id="선_176" data-name="선 176" class="cls-2" transform="translate(777.832 746.518)" d="M25.21 14.555 0 0"/>
            <path id="선_177" data-name="선 177" class="cls-2" transform="translate(737.679 754.991)" d="M37.871 21.865 0 0"/>
            <path id="선_178" data-name="선 178" class="cls-2" transform="translate(775.947 761.096)" d="M26.877 0 0 15.518"/>
            <path id="패스_4449" data-name="패스 4449" d="M752.563 740.4a6.594 6.594 0 1 1 8.843 6.2 3.983 3.983 0 0 0-3.082 4.341v1.688" transform="translate(5.994)" style="stroke:#d8e1e8;stroke-linecap:round;stroke-linejoin:round;stroke-width:2px;fill:none"/>
            <circle id="타원_414" data-name="타원 414" cx="1.5" cy="1.5" r="1.5" transform="translate(763.057 756.049)" style="fill:#d8e1e8"/>
        </g>
    </g>
</svg>
