<svg xmlns="http://www.w3.org/2000/svg" width="32" height="32">
    <g data-name="그룹 5809" transform="translate(23.468 -31.283)">
        <circle data-name="타원 585" cx="16" cy="16" r="16" transform="translate(-23.468 31.283)" style="fill:#afafaf"/>
        <path data-name="패스 4754" d="m45.912 42.4.532-3.469h-3.328v-2.253a1.735 1.735 0 0 1 1.956-1.878h1.513v-2.949a18.476 18.476 0 0 0-2.686-.234c-2.741 0-4.533 1.661-4.533 4.669v2.643h-3.047V42.4h3.047v8.386a12.113 12.113 0 0 0 3.75 0V42.4z" transform="translate(-48.921 6.51)" style="fill:#fff"/>
    </g>
</svg>
