<svg xmlns="http://www.w3.org/2000/svg" width="24" height="24.243">
    <path data-name="사각형 733" transform="translate(0 .121)" style="fill:none" d="M0 0h24v24H0z"/>
    <path data-name="패스 2461" d="m184 112 10 10-10 10" transform="translate(-172 -109.879)" style="stroke:#fff;stroke-linecap:round;stroke-linejoin:round;stroke-width:3px;fill:none"/>
</svg>
