<svg xmlns="http://www.w3.org/2000/svg" width="48" height="48">
    <defs>
        <style>
            .cls-2{fill:none;stroke:#fff;stroke-linecap:round;stroke-linejoin:round;stroke-width:3px}
        </style>
    </defs>
    <g id="icon_Magnifier_48x48" transform="translate(0 1.723)">
        <path id="Area" transform="translate(0 -1.723)" style="fill:none" d="M0 0h48v48H0z"/>
        <g id="그룹_5346" data-name="그룹 5346" transform="translate(6.992 5.779)">
            <ellipse id="타원_405" data-name="타원 405" class="cls-2" cx="15.709" cy="15.717" rx="15.709" ry="15.717"/>
            <path id="선_160" data-name="선 160" class="cls-2" transform="translate(27.643 26.579)" d="m0 0 6.357 6.417"/>
        </g>
    </g>
</svg>
