<svg xmlns="http://www.w3.org/2000/svg" width="14.047" height="14.096" viewBox="0 0 14.047 14.096">
  <g id="그룹_5472" data-name="그룹 5472" transform="translate(-0.976 -0.952)">
    <g id="패스_4228" data-name="패스 4228" transform="translate(-713.901 -376.748)" fill="none" stroke-miterlimit="10">
      <path d="M717.024,377.7l8.755.16a3.146,3.146,0,0,1,3.146,3.146v5.762a3.138,3.138,0,0,1-2.2,2.986l-.744,1.533a1.042,1.042,0,0,1-1.79,0l-.938-1.373-5.229-.16a3.148,3.148,0,0,1-3.146-3.146v-5.762a3.147,3.147,0,0,1,3.146-3.144Z" stroke="none"/>
      <path d="M 717.792724609375 378.7144470214844 C 716.7164306640625 378.8296813964844 715.8790283203125 379.7575988769531 715.8777465820312 380.8462219238281 L 715.8777465820312 386.6073913574219 C 715.8784790039062 387.7903442382812 716.8414306640625 388.7533264160156 718.0243530273438 388.7539978027344 L 718.0543212890625 388.7544555664062 L 723.7918090820312 388.9300231933594 L 725.0493774414062 390.7740173339844 C 725.0533447265625 390.7806396484375 725.058837890625 390.7861633300781 725.06640625 390.7906494140625 C 725.0731811523438 390.7947082519531 725.0787963867188 390.7963562011719 725.0856323242188 390.7963562011719 C 725.0921630859375 390.7963562011719 725.1027221679688 390.7949829101562 725.1118774414062 390.7874755859375 L 726.013916015625 388.9287719726562 L 726.4261474609375 388.7996826171875 C 727.3206176757812 388.5195922851562 727.9229736328125 387.7022399902344 727.9249877929688 386.7680053710938 L 727.9249877929688 381.0062255859375 C 727.9249877929688 379.8229370117188 726.9622802734375 378.8602294921875 725.7789916992188 378.8602294921875 L 725.7607421875 378.8600769042969 L 717.792724609375 378.7144470214844 M 717.0237426757812 377.7002258300781 L 718.0237426757812 377.7022094726562 C 717.9330444335938 377.7022094726562 717.84326171875 377.7060546875 717.7545166015625 377.7135925292969 L 717.0237426757812 377.7002258300781 Z M 717.7545166015625 377.7135925292969 L 725.7789916992188 377.8602294921875 C 727.5170288085938 377.8602294921875 728.9249877929688 379.2692260742188 728.9249877929688 381.0062255859375 L 728.9249877929688 386.7680053710938 C 728.9219970703125 388.135986328125 728.031005859375 389.3450012207031 726.7249755859375 389.7539978027344 L 725.9810180664062 391.2869873046875 C 725.68798828125 391.7810363769531 725.0489501953125 391.9440307617188 724.5549926757812 391.6499938964844 C 724.405029296875 391.5610046386719 724.280029296875 391.4360046386719 724.1909790039062 391.2869873046875 L 723.2529907226562 389.9140014648438 L 718.0237426757812 389.7539978027344 C 716.2867431640625 389.7529907226562 714.8787841796875 388.3450012207031 714.8777465820312 386.6080017089844 L 714.8777465820312 380.8462219238281 C 714.879638671875 379.1999816894531 716.14453125 377.8501281738281 717.7545166015625 377.7135925292969 Z" stroke="none" fill="#121212"/>
    </g>
    <rect id="사각형_4519" data-name="사각형 4519" width="8" height="1" rx="0.5" transform="translate(4 5)" fill="#121212"/>
    <rect id="사각형_4520" data-name="사각형 4520" width="6" height="1" rx="0.5" transform="translate(4 8)" fill="#121212"/>
  </g>
</svg>
