<svg xmlns="http://www.w3.org/2000/svg" xmlns:xlink="http://www.w3.org/1999/xlink" width="204" height="61" viewBox="0 0 204 61">

  <defs>

    <linearGradient id="linear-gradient" x1="0.93" y1="0.018" x2="0.628" y2="0.614" gradientUnits="objectBoundingBox">

      <stop offset="0" stop-color="#fbfbfb" stop-opacity="0.302"/>

      <stop offset="1" stop-color="#0682e2"/>

    </linearGradient>

  </defs>

  <g id="그룹_5815" data-name="그룹 5815" transform="translate(-7447 1567)">

    <text id="출하반장" transform="translate(7499 -1518)" fill="#121212" font-size="42" font-family="NotoSansCJKkr-Bold, Noto Sans CJK KR" font-weight="700" letter-spacing="-0.025em"><tspan x="0" y="0">출하반장</tspan></text>

    <g id="icon_box_24x24" transform="translate(7425 -1625.294)">

      <rect id="사각형_4512" data-name="사각형 4512" width="40" height="40" transform="translate(22 68.294)" fill="none"/>

      <g id="box" transform="translate(25.364 69.976)">

        <path id="패스_4058" data-name="패스 4058" d="M19.749,22.042,3.35,12.316l16.4-9.726,16.4,9.726Z" transform="translate(-2.508 -2.59)" fill="none" stroke="#0682e2" stroke-linecap="round" stroke-linejoin="round" stroke-miterlimit="10" stroke-width="3"/>

        <path id="패스_4060" data-name="패스 4060" d="M19.7,34.418l-1.121-.882L3.35,24.684Z" transform="translate(-2.508 2.552)" fill="none" stroke="#0682e2" stroke-linecap="round" stroke-linejoin="round" stroke-miterlimit="10" stroke-width="3"/>

        <path id="패스_4059" data-name="패스 4059" d="M20.933,26.518V11.87L3.35,16.259,20.933,26.518" transform="translate(-3.35 10.485)" fill="url(#linear-gradient)"/>

        <line id="선_151" data-name="선 151" y1="17.773" transform="translate(17.231 19.231)" stroke="#0682e2" stroke-linecap="round" stroke-linejoin="round" stroke-miterlimit="10" stroke-width="3"/>

        <line id="선_152" data-name="선 152" y1="17.242" transform="translate(0.842 9.881)" stroke="#0682e2" stroke-linecap="round" stroke-linejoin="round" stroke-miterlimit="10" stroke-width="3"/>

        <line id="선_153" data-name="선 153" y1="9.582" x2="16.503" transform="translate(17.274 27.421)" fill="none" stroke="#0682e2" stroke-linecap="round" stroke-linejoin="round" stroke-miterlimit="10" stroke-width="3"/>

        <line id="선_155" data-name="선 155" y1="3.574" x2="6.124" transform="translate(27.45 15.853)" fill="none" stroke="#0682e2" stroke-linecap="round" stroke-linejoin="round" stroke-width="3"/>

        <line id="선_156" data-name="선 156" y1="2.219" x2="3.802" transform="translate(27.45 22.681)" fill="none" stroke="#0682e2" stroke-linecap="round" stroke-linejoin="round" stroke-width="3"/>

      </g>

    </g>

  </g>

</svg>

