<svg xmlns="http://www.w3.org/2000/svg" width="14" height="14">
    <g data-name="back btn">
        <path data-name="사각형 733" transform="rotate(90 7 7)" style="fill:none" d="M0 0h14v14H0z"/>
        <path data-name="패스 2461" d="m0 0 5 5-5 5" transform="rotate(90 3.15 8.447)" style="stroke:#6e6e6e;stroke-linecap:round;stroke-linejoin:round;stroke-width:1.6px;fill:none"/>
    </g>
</svg>
