<svg xmlns="http://www.w3.org/2000/svg" width="48" height="48">
    <defs>
        <style>
            .cls-2{fill:none}
        </style>
    </defs>
    <g id="btn__" data-name="btn_&gt;" transform="translate(.132 -.406)">
        <g id="타원_407" data-name="타원 407" transform="translate(-.132 .405)" style="fill:#fff;stroke:#afafaf">
            <circle cx="24" cy="24" r="24" style="stroke:none"/>
            <circle class="cls-2" cx="24" cy="24" r="23.5"/>
        </g>
        <g id="back_btn" data-name="back btn" transform="translate(13.22 13.22)">
            <path id="사각형_733" data-name="사각형 733" class="cls-2" transform="translate(-.352 .186)" d="M0 0h23v22H0z"/>
            <path id="패스_2461" data-name="패스 2461" d="m184 112 8.106 8.106-8.106 8.106" transform="translate(-175.591 -109.008)" style="stroke:#121212;stroke-linecap:round;stroke-linejoin:round;stroke-width:1.6px;fill:none"/>
        </g>
    </g>
</svg>
