<svg xmlns="http://www.w3.org/2000/svg" width="165" height="24" viewBox="0 0 165 24">
    <defs>
        <linearGradient id="linear-gradient" x1=".557" y1=".736" x2=".956" y2=".034" gradientUnits="objectBoundingBox">
            <stop offset="0" stop-color="#0682e2"/>
            <stop offset=".074" stop-color="#0682e2"/>
            <stop offset="1" stop-color="#f7f7f7" stop-opacity="0"/>
        </linearGradient>
        <style>
            .cls-1{fill:none}.cls-3{fill:#0682e2}
        </style>
    </defs>
    <g id="logo_tit" data-name="logo tit" transform="translate(-22 -68.294)">
        <path id="사각형_4861" data-name="사각형 4861" class="cls-1" transform="translate(22 68.294)" d="M0 0h24v24H0z"/>
        <g id="그룹_5780" data-name="그룹 5780" transform="translate(-124 30.307)">
            <path id="패스_4746" data-name="패스 4746" d="m20.442 63.646-9.478-5.306 9.477-3.614z" transform="translate(137.615 -3.577)" style="fill:url(#linear-gradient)"/>
            <g id="그룹_5779" data-name="그룹 5779" transform="translate(148 37.988)">
                <rect id="사각형_4858" data-name="사각형 4858" class="cls-3" width="1.101" height="7.567" rx=".55" transform="rotate(59.517 1.727 22.496)"/>
                <rect id="사각형_4859" data-name="사각형 4859" class="cls-3" width="1.101" height="4.359" rx=".55" transform="rotate(59.54 -.904 23.995)"/>
                <rect id="사각형_4860" data-name="사각형 4860" class="cls-3" width="1.101" height="10.3" rx=".55" transform="translate(9.828 11.924)"/>
                <path id="패스_4747" data-name="패스 4747" class="cls-3" d="m29.522 17.549-.011-.017a.566.566 0 0 0-.763-.187l-9.3 5.3a.731.731 0 0 1-.711 0l-8.567-4.711a.686.686 0 0 1-.36-.594L9.751 9.2l8.31 4.574A1.994 1.994 0 0 0 20 13.759l8.4-4.777a1.723 1.723 0 0 0 .96-1.663c-.085-.688-.379-.9-.982-1.229L19.91 1.426a2 2 0 0 0-1.941.013l-8.4 4.778a1.87 1.87 0 0 0-.959 1.636v.251l.067 9.188a1.873 1.873 0 0 0 .982 1.622l8.471 4.662a2 2 0 0 0 1.941-.013l9.257-5.275a.53.53 0 0 0 .194-.739zM10.091 7.192l8.5-4.833a.731.731 0 0 1 .711 0l8.569 4.711a.592.592 0 0 1 .346.469.587.587 0 0 1-.337.468l-8.5 4.833a.731.731 0 0 1-.711 0L10.1 8.129a.573.573 0 0 1-.346-.47.6.6 0 0 1 .337-.467z" transform="translate(-8.607 -1.181)"/>
                <path id="패스_4748" data-name="패스 4748" class="cls-3" d="m26.03 78.526-.87-.284c-.28 0-.507-.162-.507.118v.25l-.045-.058c-.28 0-.507-.162-.507.118v.73a.61.61 0 0 0 .358.656l1.358.927a.408.408 0 0 0 .368.079l.56-.314a.328.328 0 0 0 .153-.317v-1.082c.002-.28-.588-.823-.868-.823z" transform="translate(-20.151 -59.265)"/>
                <path id="패스_4749" data-name="패스 4749" class="cls-3" d="M41.2 88.982v.739a.61.61 0 0 0 .358.656l1.359.927a.839.839 0 0 0 .086.047.313.313 0 0 0 .334 0 .841.841 0 0 0 .086-.047l1.359-.927a.61.61 0 0 0 .358-.656v-.739z" transform="translate(-32.87 -67.4)"/>
                <path id="패스_4750" data-name="패스 4750" class="cls-3" d="M80.013 70.328v.635a.328.328 0 0 0 .153.317l.56.314c.088.037.211.02.517-.228l1.358-.927c.209-.087.209-.227.209-.507v-1.24z" transform="translate(-61.81 -52.097)"/>
                <path id="패스_4751" data-name="패스 4751" class="cls-3" d="M63.548 81.009v.475a.328.328 0 0 0 .153.317l.56.314a.409.409 0 0 0 .368-.079l1.358-.927a.61.61 0 0 0 .358-.656v-.732a1.3 1.3 0 0 0-.058-.32z" transform="translate(-49.542 -60.174)"/>
                <path id="패스_4752" data-name="패스 4752" class="cls-3" d="M8.847 66.983v1.5a.61.61 0 0 0 .358.656l1.358.927a.409.409 0 0 0 .368.079l.56-.314a.328.328 0 0 0 .153-.317V69.1z" transform="translate(-8.788 -50.808)"/>
            </g>
        </g>
        <path id="사각형_4886" data-name="사각형 4886" class="cls-1" transform="translate(54 68.295)" d="M0 0h133v24H0z"/>
        <g id="그룹_5818" data-name="그룹 5818" transform="translate(5.705 -14.184)">
            <path id="패스_4766" data-name="패스 4766" d="M56.277 95.61h4.178v3.826H52v.806h8.862v1.594H49.8v-3.894h8.476V97.2h-8.495v-1.59h4.281v-.924h-5.841v-1.627h13.914v1.627h-5.858zm-2.484-6.31h-4.264v-1.6h4.516v-1.221h2.215V87.7h4.548v1.6h-4.3c.452.873 1.946 1.612 5.052 1.746l-.621 1.627c-2.971-.151-4.783-.856-5.79-2-.956 1.14-2.769 1.846-5.789 2l-.606-1.627c3.108-.135 4.619-.874 5.039-1.746z"/>
            <path id="패스_4767" data-name="패스 4767" d="M68.172 88.775v1.762h-8.995v-1.762H62.6V86.76h2.215v2.015zm-.554 6.31a3.917 3.917 0 1 1-3.893-3.676 3.665 3.665 0 0 1 3.893 3.675zm-2.1 0a1.806 1.806 0 1 0-1.8 1.9 1.723 1.723 0 0 0 1.802-1.901zm5.874-.722v7.586h-2.213V86.491h2.215v6.042h2.216v1.829z" transform="translate(4.375 .005)"/>
            <path id="패스_4768" data-name="패스 4768" d="M70.6 95.454V87.6h2.182v2.2h3.038v-2.2H78v7.855zm12.268 4.464v1.762H72.346v-4.935h2.215v3.172zM72.783 91.51v2.2h3.038v-2.2zm11.581 1.157h-2.049v5.2H80.1V86.491h2.215v4.365h2.049z" transform="translate(8.937 .005)"/>
            <path id="패스_4769" data-name="패스 4769" d="M85.994 92.416a5.971 5.971 0 0 1-3.725 3.34l-1.108-1.73a5.025 5.025 0 0 0 3.639-4.732h-3.068v-1.779h8.358v1.779h-3.021a4.464 4.464 0 0 0 3.524 4.212l-1.057 1.713a5.755 5.755 0 0 1-3.542-2.803zm7.72 6.545c0 1.881-2 2.988-5.22 2.988-3.239 0-5.236-1.107-5.236-2.988 0-1.9 2-3.02 5.236-3.02 3.224 0 5.221 1.123 5.221 3.02zm-2.2 0c0-.889-1.056-1.308-3.021-1.308-2.03 0-3.038.437-3.038 1.308 0 .856 1.008 1.293 3.038 1.293 1.967 0 3.023-.42 3.023-1.293zm4.079-7.1h-2.046v3.81h-2.216v-9.18h2.215v3.559H95.6z" transform="translate(13.154 .005)"/>
            <path id="패스_4770" data-name="패스 4770" d="M108.867 99.448H95.188v-1.14h6.126v-3.861h-4.38V87.5h10.2v1.124H98.31v4.716h8.98v1.108h-4.581v3.861h6.159z" transform="translate(18.756 .407)"/>
            <path id="패스_4771" data-name="패스 4771" d="M112.347 88.381v9.264h-5.723v-9.264zm-1.276 8.172v-7.082h-3.154v7.082zm7.8 5.119h-1.31v-7.955h-2.03v7.218h-1.292V86.971h1.292v5.623h2.03v-5.959h1.31z" transform="translate(23.323 .062)"/>
            <path id="패스_4772" data-name="패스 4772" d="M129.617 94.72h-1.4v-3.374h-3.053a3.564 3.564 0 0 1-3.843 2.954c-2.233 0-3.878-1.409-3.878-3.49 0-2.065 1.644-3.475 3.878-3.475a3.6 3.6 0 0 1 3.826 2.887h3.07v-3.575h1.4zm-5.723-3.91a2.578 2.578 0 1 0-2.568 2.349 2.351 2.351 0 0 0 2.567-2.349zm5.723 4.649v6.026h-9.634v-6.026h1.359v1.9h6.9v-1.9zm-8.276 2.971v1.946h6.9v-1.947z" transform="translate(27.645 .067)"/>
            <path id="패스_4773" data-name="패스 4773" d="m135.974 97.242-.791 1.04a6.962 6.962 0 0 1-3.083-4.162 7.276 7.276 0 0 1-3.055 4.482l-.806-1.024a7.447 7.447 0 0 0 3.189-6.311v-.721h-2.786V89.4h2.786v-2.228h1.327V89.4h2.768v1.142h-2.786v.721a6.818 6.818 0 0 0 3.237 5.979zm2.13-10.254V100.9H136.8v-7.183h-2.3v-1.14h2.3v-5.589zm3.038 14.685h-1.325V86.635h1.325z" transform="translate(31.953 .062)"/>
        </g>
    </g>
</svg>
